…
With this data, we’ll walk through the different `{dplyr}` “verbs” for
manipulating data.

### filter()

Let’s just practice filter first, which we’ve already seen in action.
Let’s say we only want data for major powers.

``` r
Data %>%
  filter(cowmaj == 1)
```

    ## # A tibble: 2,365 × 21
    ##    ccode statenme       year cowmaj warnum warname wartype cowin…¹ cowin…² intnl
    ##    <dbl> <chr>         <dbl>  <dbl>  <dbl> <chr>   <chr>     <dbl>   <dbl> <dbl>
    ##  1     2 United State…  1898      1     NA <NA>    <NA>          0       0    NA
    ##  2     2 United State…  1899      1     NA <NA>    <NA>          0       0    NA
    ##  3     2 United State…  1900      1     NA <NA>    <NA>          0       0    NA
    ##  4     2 United State…  1901      1     NA <NA>    <NA>          0       0    NA
    ##  5     2 United State…  1902      1     NA <NA>    <NA>          0       0    NA
    ##  6     2 United State…  1903      1     NA <NA>    <NA>          0       0    NA
    ##  7     2 United State…  1904      1     NA <NA>    <NA>          0       0    NA
    ##  8     2 United State…  1905      1     NA <NA>    <NA>          0       0    NA
    ##  9     2 United State…  1906      1     NA <NA>    <NA>          0       0    NA
    ## 10     2 United State…  1907      1     NA <NA>    <NA>          0       0    NA
    ## # … with 2,355 more rows, 11 more variables: outcome <dbl>, sideadeaths <dbl>,
    ## #   sidebdeaths <dbl>, intrawarnums <chr>, v2x_polyarchy <dbl>, polity2 <dbl>,
    ## #   xm_qudsest <dbl>, wbgdp2011est <dbl>, wbpopest <dbl>, sdpest <dbl>,
    ## #   wbgdppc2011est <dbl>, and abbreviated variable names ¹​cowintraonset,
    ## #   ²​cowintraongoing
    ## # ℹ Use `print(n = ...)` to see more rows, and `colnames()` to see all variable names

OK but what if we want to filter on two variables, major powers that are
experiencing civil wars?

``` r
Data %>%
  filter(cowmaj == 1 & cowintraongoing == 1)
```

    ## # A tibble: 61 × 21
    ##    ccode statenme       year cowmaj warnum warname wartype cowin…¹ cowin…² intnl
    ##    <dbl> <chr>         <dbl>  <dbl>  <dbl> <chr>   <chr>     <dbl>   <dbl> <dbl>
    ##  1   220 France         1830      1    513 First … centra…       1       1     0
    ##  2   220 France         1848      1    552 Second… centra…       1       1     0
    ##  3   220 France         1871      1    596 Paris … centra…       1       1     0
    ##  4   300 Austria-Hung…  1848      1    554 Hungar… local …       1       1     1
    ##  5   300 Austria-Hung…  1849      1    554 Hungar… local …       0       1     1
    ##  6   365 Russia         1818      1    500 First … local …       1       1     0
    ##  7   365 Russia         1819      1    500 First … local …       0       1     0
    ##  8   365 Russia         1820      1    500 First … local …       0       1     0
    ##  9   365 Russia         1821      1    500 First … local …       0       1     0
    ## 10   365 Russia         1822      1    500 First … local …       0       1     0
    ## # … with 51 more rows, 11 more variables: outcome <dbl>, sideadeaths <dbl>,
    ## #   sidebdeaths <dbl>, intrawarnums <chr>, v2x_polyarchy <dbl>, polity2 <dbl>,
    ## #   xm_qudsest <dbl>, wbgdp2011est <dbl>, wbpopest <dbl>, sdpest <dbl>,
    ## #   wbgdppc2011est <dbl>, and abbreviated variable names ¹​cowintraonset,
    ## #   ²​cowintraongoing
    ## # ℹ Use `print(n = ...)` to see more rows, and `colnames()` to see all variable names

OK but what if we want to filter on two variables but make it either or?

``` r
Data %>%
  filter(cowmaj == 1 | cowintraongoing == 1)
```

    ## # A tibble: 3,235 × 21
    ##    ccode statenme       year cowmaj warnum warname wartype cowin…¹ cowin…² intnl
    ##    <dbl> <chr>         <dbl>  <dbl>  <dbl> <chr>   <chr>     <dbl>   <dbl> <dbl>
    ##  1     2 United State…  1861      0    572 U.S. C… local …       1       1     0
    ##  2     2 United State…  1862      0    572 U.S. C… local …       0       1     0
    ##  3     2 United State…  1863      0    572 U.S. C… local …       0       1     0
    ##  4     2 United State…  1864      0    572 U.S. C… local …       0       1     0
    ##  5     2 United State…  1865      0    572 U.S. C… local …       0       1     0
    ##  6     2 United State…  1898      1     NA <NA>    <NA>          0       0    NA
    ##  7     2 United State…  1899      1     NA <NA>    <NA>          0       0    NA
    ##  8     2 United State…  1900      1     NA <NA>    <NA>          0       0    NA
    ##  9     2 United State…  1901      1     NA <NA>    <NA>          0       0    NA
    ## 10     2 United State…  1902      1     NA <NA>    <NA>          0       0    NA
    ## # … with 3,225 more rows, 11 more variables: outcome <dbl>, sideadeaths <dbl>,
    ## #   sidebdeaths <dbl>, intrawarnums <chr>, v2x_polyarchy <dbl>, polity2 <dbl>,
    ## #   xm_qudsest <dbl>, wbgdp2011est <dbl>, wbpopest <dbl>, sdpest <dbl>,
    ## #   wbgdppc2011est <dbl>, and abbreviated variable names ¹​cowintraonset,
    ## #   ²​cowintraongoing
    ## # ℹ Use `print(n = ...)` to see more rows, and `colnames()` to see all variable names
…
    Data %>%
      filter(warnum == NA)

Nope! Since NA is a special value that indicates missing data, it cannot
be equal to anything, or not equal to anything. This means we can only
include or exclude NA using functions designed to do that. For example,
is.na() or na.rm=TRUE. The example below would work/

``` r
Data %>%
  filter(is.na(warnum))
```

    ## # A tibble: 16,190 × 21
    ##    ccode statenme       year cowmaj warnum warname wartype cowin…¹ cowin…² intnl
    ##    <dbl> <chr>         <dbl>  <dbl>  <dbl> <chr>   <chr>     <dbl>   <dbl> <dbl>
    ##  1     2 United State…  1816      0     NA <NA>    <NA>          0       0    NA
    ##  2     2 United State…  1817      0     NA <NA>    <NA>          0       0    NA
    ##  3     2 United State…  1818      0     NA <NA>    <NA>          0       0    NA
    ##  4     2 United State…  1819      0     NA <NA>    <NA>          0       0    NA
    ##  5     2 United State…  1820      0     NA <NA>    <NA>          0       0    NA
    ##  6     2 United State…  1821      0     NA <NA>    <NA>          0       0    NA
    ##  7     2 United State…  1822      0     NA <NA>    <NA>          0       0    NA
    ##  8     2 United State…  1823      0     NA <NA>    <NA>          0       0    NA
    ##  9     2 United State…  1824      0     NA <NA>    <NA>          0       0    NA
    ## 10     2 United State…  1825      0     NA <NA>    <NA>          0       0    NA
    ## # … with 16,180 more rows, 11 more variables: outcome <dbl>, sideadeaths <dbl>,
    ## #   sidebdeaths <dbl>, intrawarnums <chr>, v2x_polyarchy <dbl>, polity2 <dbl>,
    ## #   xm_qudsest <dbl>, wbgdp2011est <dbl>, wbpopest <dbl>, sdpest <dbl>,
    ## #   wbgdppc2011est <dbl>, and abbreviated variable names ¹​cowintraonset,
    ## #   ²​cowintraongoing
    ## # ℹ Use `print(n = ...)` to see more rows, and `colnames()` to see all variable names
### arrange()

We haven’t seen this yet, but it works similarly to `filter()`, except
instead of selecting rows, it changes their order - Kind of like using
“sort” in Excel, except you know that you won’t accidentally sort just
the one row and scramble all your data.

Let’s sort the dataset by year:

``` r
Data %>%
  arrange(year)
```

    ## # A tibble: 17,121 × 21
    ##    ccode statenme       year cowmaj warnum warname wartype cowin…¹ cowin…² intnl
    ##    <dbl> <chr>         <dbl>  <dbl>  <dbl> <chr>   <chr>     <dbl>   <dbl> <dbl>
    ##  1     2 United State…  1816      0     NA <NA>    <NA>          0       0    NA
    ##  2   200 United Kingd…  1816      1     NA <NA>    <NA>          0       0    NA
    ##  3   210 Netherlands    1816      0     NA <NA>    <NA>          0       0    NA
    ##  4   220 France         1816      1     NA <NA>    <NA>          0       0    NA
    ##  5   225 Switzerland    1816      0     NA <NA>    <NA>          0       0    NA
    ##  6   230 Spain          1816      0     NA <NA>    <NA>          0       0    NA
    ##  7   235 Portugal       1816      0     NA <NA>    <NA>          0       0    NA
    ##  8   245 Bavaria        1816      0     NA <NA>    <NA>          0       0    NA
    ##  9   255 Germany        1816      1     NA <NA>    <NA>          0       0    NA
    ## 10   267 Baden          1816      0     NA <NA>    <NA>          0       0    NA
    ## # … with 17,111 more rows, 11 more variables: outcome <dbl>, sideadeaths <dbl>,
    ## #   sidebdeaths <dbl>, intrawarnums <chr>, v2x_polyarchy <dbl>, polity2 <dbl>,
    ## #   xm_qudsest <dbl>, wbgdp2011est <dbl>, wbpopest <dbl>, sdpest <dbl>,
    ## #   wbgdppc2011est <dbl>, and abbreviated variable names ¹​cowintraonset,
    ## #   ²​cowintraongoing
    ## # ℹ Use `print(n = ...)` to see more rows, and `colnames()` to see all variable names

OK, cool, but what if we want to see most recent years first? We can
specify the order, and change the default:

``` r
Data %>%
  arrange(desc(year))
```

    ## # A tibble: 17,121 × 21
    ##    ccode statenme       year cowmaj warnum warname wartype cowin…¹ cowin…² intnl
    ##    <dbl> <chr>         <dbl>  <dbl>  <dbl> <chr>   <chr>     <dbl>   <dbl> <dbl>
    ##  1     2 United State…  2022      1     NA <NA>    <NA>         NA      NA    NA
    ##  2    20 Canada         2022      1     NA <NA>    <NA>         NA      NA    NA
    ##  3    31 Bahamas        2022      1     NA <NA>    <NA>         NA      NA    NA
    ##  4    40 Cuba           2022      1     NA <NA>    <NA>         NA      NA    NA
    ##  5    41 Haiti          2022      1     NA <NA>    <NA>         NA      NA    NA
    ##  6    42 Dominican Re…  2022      1     NA <NA>    <NA>         NA      NA    NA
    ##  7    51 Jamaica        2022      1     NA <NA>    <NA>         NA      NA    NA
    ##  8    52 Trinidad and…  2022      1     NA <NA>    <NA>         NA      NA    NA
    ##  9    53 Barbados       2022      1     NA <NA>    <NA>         NA      NA    NA
    ## 10    54 Dominica       2022      1     NA <NA>    <NA>         NA      NA    NA
    ## # … with 17,111 more rows, 11 more variables: outcome <dbl>, sideadeaths <dbl>,
    ## #   sidebdeaths <dbl>, intrawarnums <chr>, v2x_polyarchy <dbl>, polity2 <dbl>,
    ## #   xm_qudsest <dbl>, wbgdp2011est <dbl>, wbpopest <dbl>, sdpest <dbl>,
    ## #   wbgdppc2011est <dbl>, and abbreviated variable names ¹​cowintraonset,
    ## #   ²​cowintraongoing
    ## # ℹ Use `print(n = ...)` to see more rows, and `colnames()` to see all variable names

But what if we really want to use the warname category? Do you think we
can sort on a factor or character? Let’s try! We can try anything in R…

``` r
Data %>%
  arrange(warname)
```

    ## # A tibble: 17,121 × 21
    ##    ccode statenme       year cowmaj warnum warname wartype cowin…¹ cowin…² intnl
    ##    <dbl> <chr>         <dbl>  <dbl>  <dbl> <chr>   <chr>     <dbl>   <dbl> <dbl>
    ##  1   372 Georgia        1993      0    882 Abkhaz… local …       1       1     0
    ##  2   372 Georgia        1994      0    882 Abkhaz… local …       0       1     0
    ##  3   490 Democratic R…  1998      0    905 Africa… centra…       0       1     1
    ##  4   490 Democratic R…  1999      0    905 Africa… centra…       0       1     1
    ##  5   490 Democratic R…  2000      0    905 Africa… centra…       0       1     1
    ##  6   490 Democratic R…  2001      0    905 Africa… centra…       0       1     1
    ##  7   490 Democratic R…  2002      0    905 Africa… centra…       0       1     1
    ##  8   355 Bulgaria       1923      0    693 Agrari… centra…       1       1     0
    ##  9   615 Algeria        1992      0    875 Algeri… centra…       1       1     0
    ## 10   615 Algeria        1993      0    875 Algeri… centra…       0       1     0
    ## # … with 17,111 more rows, 11 more variables: outcome <dbl>, sideadeaths <dbl>,
    ## #   sidebdeaths <dbl>, intrawarnums <chr>, v2x_polyarchy <dbl>, polity2 <dbl>,
    ## #   xm_qudsest <dbl>, wbgdp2011est <dbl>, wbpopest <dbl>, sdpest <dbl>,
    ## #   wbgdppc2011est <dbl>, and abbreviated variable names ¹​cowintraonset,
    ## #   ²​cowintraongoing
    ## # ℹ Use `print(n = ...)` to see more rows, and `colnames()` to see all variable names
…
``` r
ncol(Data)
```

    ## [1] 21

Let’s just get the ones we want.

``` r
Data %>%
  select(statenme, year, cowintraongoing, sideadeaths, sidebdeaths)
```

    ## # A tibble: 17,121 × 5
    ##    statenme                  year cowintraongoing sideadeaths sidebdeaths
    ##    <chr>                    <dbl>           <dbl>       <dbl>       <dbl>
    ##  1 United States of America  1816               0          NA          NA
    ##  2 United States of America  1817               0          NA          NA
    ##  3 United States of America  1818               0          NA          NA
    ##  4 United States of America  1819               0          NA          NA
    ##  5 United States of America  1820               0          NA          NA
    ##  6 United States of America  1821               0          NA          NA
    ##  7 United States of America  1822               0          NA          NA
    ##  8 United States of America  1823               0          NA          NA
    ##  9 United States of America  1824               0          NA          NA
    ## 10 United States of America  1825               0          NA          NA
    ## # … with 17,111 more rows
    ## # ℹ Use `print(n = ...)` to see more rows

What if we wanted most of the columns, but just not surplus domestic
product? Do we have to name all the other columsn? Thankfully, no!

``` r
Data %>%
  select(-sdpest)
```

    ## # A tibble: 17,121 × 20
    ##    ccode statenme       year cowmaj warnum warname wartype cowin…¹ cowin…² intnl
    ##    <dbl> <chr>         <dbl>  <dbl>  <dbl> <chr>   <chr>     <dbl>   <dbl> <dbl>
    ##  1     2 United State…  1816      0     NA <NA>    <NA>          0       0    NA
    ##  2     2 United State…  1817      0     NA <NA>    <NA>          0       0    NA
    ##  3     2 United State…  1818      0     NA <NA>    <NA>          0       0    NA
    ##  4     2 United State…  1819      0     NA <NA>    <NA>          0       0    NA
    ##  5     2 United State…  1820      0     NA <NA>    <NA>          0       0    NA
    ##  6     2 United State…  1821      0     NA <NA>    <NA>          0       0    NA
    ##  7     2 United State…  1822      0     NA <NA>    <NA>          0       0    NA
    ##  8     2 United State…  1823      0     NA <NA>    <NA>          0       0    NA
    ##  9     2 United State…  1824      0     NA <NA>    <NA>          0       0    NA
    ## 10     2 United State…  1825      0     NA <NA>    <NA>          0       0    NA
    ## # … with 17,111 more rows, 10 more variables: outcome <dbl>, sideadeaths <dbl>,
    ## #   sidebdeaths <dbl>, intrawarnums <chr>, v2x_polyarchy <dbl>, polity2 <dbl>,
    ## #   xm_qudsest <dbl>, wbgdp2011est <dbl>, wbpopest <dbl>, wbgdppc2011est <dbl>,
    ## #   and abbreviated variable names ¹​cowintraonset, ²​cowintraongoing
    ## # ℹ Use `print(n = ...)` to see more rows, and `colnames()` to see all variable names
…
-   `starts_with("")`
-   `end_with("")`
-   `contains("ijk")`

For example, we have a couple columns that contain “war”. We can only
select those by writing:

``` r
Data %>%
  select(contains("war"))
```

    ## # A tibble: 17,121 × 4
    ##    warnum warname wartype intrawarnums
    ##     <dbl> <chr>   <chr>   <chr>       
    ##  1     NA <NA>    <NA>    <NA>        
    ##  2     NA <NA>    <NA>    <NA>        
    ##  3     NA <NA>    <NA>    <NA>        
    ##  4     NA <NA>    <NA>    <NA>        
    ##  5     NA <NA>    <NA>    <NA>        
    ##  6     NA <NA>    <NA>    <NA>        
    ##  7     NA <NA>    <NA>    <NA>        
    ##  8     NA <NA>    <NA>    <NA>        
    ##  9     NA <NA>    <NA>    <NA>        
    ## 10     NA <NA>    <NA>    <NA>        
    ## # … with 17,111 more rows
    ## # ℹ Use `print(n = ...)` to see more rows
…
To chain on another command, we use the pipe `%>%`, just like in ggplot
where we added layers to our graphic using `+`. Let’s make our own
calculation of total war deaths.

``` r
Data %>%
  select(statenme, year, cowintraongoing, 
         sideadeaths, sidebdeaths) %>%
  mutate(
    total_deaths = sideadeaths + sidebdeaths
  )
```

    ## # A tibble: 17,121 × 6
    ##    statenme                  year cowintraongoing sideadeaths sidebdea…¹ total…²
    ##    <chr>                    <dbl>           <dbl>       <dbl>      <dbl>   <dbl>
    ##  1 United States of America  1816               0          NA         NA      NA
    ##  2 United States of America  1817               0          NA         NA      NA
    ##  3 United States of America  1818               0          NA         NA      NA
    ##  4 United States of America  1819               0          NA         NA      NA
    ##  5 United States of America  1820               0          NA         NA      NA
    ##  6 United States of America  1821               0          NA         NA      NA
    ##  7 United States of America  1822               0          NA         NA      NA
    ##  8 United States of America  1823               0          NA         NA      NA
    ##  9 United States of America  1824               0          NA         NA      NA
    ## 10 United States of America  1825               0          NA         NA      NA
    ## # … with 17,111 more rows, and abbreviated variable names ¹​sidebdeaths,
    ## #   ²​total_deaths
    ## # ℹ Use `print(n = ...)` to see more rows

Here’s one showing how you can build on new columns you make in
`mutate()` within the same call to the function:

``` r
Data %>%
  select(statenme, year, cowintraongoing, 
         sideadeaths, sidebdeaths, wbpopest) %>%
  mutate(
    total_deaths = sideadeaths + sidebdeaths,
    deaths_pc = total_deaths / exp(wbpopest)
  )
```

    ## # A tibble: 17,121 × 8
    ##    statenme                 year cowin…¹ sidea…² sideb…³ wbpop…⁴ total…⁵ death…⁶
    ##    <chr>                   <dbl>   <dbl>   <dbl>   <dbl>   <dbl>   <dbl>   <dbl>
    ##  1 United States of Ameri…  1816       0      NA      NA    15.9      NA      NA
    ##  2 United States of Ameri…  1817       0      NA      NA    16.0      NA      NA
    ##  3 United States of Ameri…  1818       0      NA      NA    16.0      NA      NA
    ##  4 United States of Ameri…  1819       0      NA      NA    16.0      NA      NA
    ##  5 United States of Ameri…  1820       0      NA      NA    16.1      NA      NA
    ##  6 United States of Ameri…  1821       0      NA      NA    16.1      NA      NA
    ##  7 United States of Ameri…  1822       0      NA      NA    16.1      NA      NA
    ##  8 United States of Ameri…  1823       0      NA      NA    16.1      NA      NA
    ##  9 United States of Ameri…  1824       0      NA      NA    16.2      NA      NA
    ## 10 United States of Ameri…  1825       0      NA      NA    16.2      NA      NA
    ## # … with 17,111 more rows, and abbreviated variable names ¹​cowintraongoing,
    ## #   ²​sideadeaths, ³​sidebdeaths, ⁴​wbpopest, ⁵​total_deaths, ⁶​deaths_pc
    ## # ℹ Use `print(n = ...)` to see more rows
…
