…
    ## New names:
    ## Rows: 64600 Columns: 33
    ## ── Column specification
    ## ──────────────────────────────────────────────────────── Delimiter: "," dbl
    ## (33): ...1, X1, id, state, birthyr, gender, educ, race, marital, natecon...
    ## ℹ Use `spec()` to retrieve the full column specification for this data. ℹ
    ## Specify the column types or set `show_col_types = FALSE` to quiet this message.
    ## • `` -> `...1`

``` r
cces
```

    ## # A tibble: 64,600 × 33
    ##     ...1    X1       id state birthyr gender  educ  race marital natecon mymoney
    ##    <dbl> <dbl>    <dbl> <dbl>   <dbl>  <dbl> <dbl> <dbl>   <dbl>   <dbl>   <dbl>
    ##  1     1     1   2.22e8    33    1969      2     2     1       1       3       2
    ##  2     2     2   2.74e8    22    1994      2     2     1       5       4       3
    ##  3     3     3   2.84e8    29    1964      2     2     2       5       5       2
    ##  4     4     4   2.88e8     1    1988      2     2     2       5       4       4
    ##  5     5     5   2.90e8     8    1982      2     5     1       1       2       2
    ##  6     6     6   2.91e8     1    1963      2     2     6       4       4       4
    ##  7     7     7   2.93e8    48    1962      1     2     1       2       3       3
    ##  8     8     8   2.95e8    42    1991      2     1     1       2       5       5
    ##  9     9     9   2.96e8    13    1963      1     2     1       1       4       4
    ## 10    10    10   2.96e8    42    1957      2     2     1       1       5       3
    ## # … with 64,590 more rows, and 22 more variables: econfuture <dbl>,
    ## #   police <dbl>, background <dbl>, registry <dbl>, assaultban <dbl>,
    ## #   conceal <dbl>, pathway <dbl>, border <dbl>, dreamer <dbl>, deport <dbl>,
    ## #   prochoice <dbl>, prolife <dbl>, gaym <dbl>, employ <dbl>, pid7 <dbl>,
    ## #   attend <dbl>, religion <dbl>, vote16 <dbl>, ideo5 <dbl>, union <dbl>,
    ## #   income <dbl>, sexuality <dbl>
    ## # ℹ Use `print(n = ...)` to see more rows, and `colnames()` to see all variable names
…
