…
### filter()

Let’s just practice filter first, which we’ve already seen in lab. Let’s
say we want all the data from men.

``` r
NHANES %>%
  filter(Gender == "male")
```

    ## # A tibble: 4,980 × 76
    ##       ID SurveyYr Gender   Age AgeDecade AgeMonths Race1 Race3 Education Marit…¹
    ##    <int> <fct>    <fct>  <int> <fct>         <int> <fct> <fct> <fct>     <fct>  
    ##  1 51624 2009_10  male      34 " 30-39"        409 White <NA>  High Sch… Married
    ##  2 51624 2009_10  male      34 " 30-39"        409 White <NA>  High Sch… Married
    ##  3 51624 2009_10  male      34 " 30-39"        409 White <NA>  High Sch… Married
    ##  4 51625 2009_10  male       4 " 0-9"           49 Other <NA>  <NA>      <NA>   
    ##  5 51638 2009_10  male       9 " 0-9"          115 White <NA>  <NA>      <NA>   
    ##  6 51646 2009_10  male       8 " 0-9"          101 White <NA>  <NA>      <NA>   
    ##  7 51654 2009_10  male      66 " 60-69"        795 White <NA>  Some Col… Married
    ##  8 51656 2009_10  male      58 " 50-59"        707 White <NA>  College … Divorc…
    ##  9 51657 2009_10  male      54 " 50-59"        654 White <NA>  9 - 11th… Married
    ## 10 51667 2009_10  male      50 " 50-59"        603 White <NA>  Some Col… NeverM…
    ## # … with 4,970 more rows, 66 more variables: HHIncome <fct>, HHIncomeMid <int>,
    ## #   Poverty <dbl>, HomeRooms <int>, HomeOwn <fct>, Work <fct>, Weight <dbl>,
    ## #   Length <dbl>, HeadCirc <dbl>, Height <dbl>, BMI <dbl>,
    ## #   BMICatUnder20yrs <fct>, BMI_WHO <fct>, Pulse <int>, BPSysAve <int>,
    ## #   BPDiaAve <int>, BPSys1 <int>, BPDia1 <int>, BPSys2 <int>, BPDia2 <int>,
    ## #   BPSys3 <int>, BPDia3 <int>, Testosterone <dbl>, DirectChol <dbl>,
    ## #   TotChol <dbl>, UrineVol1 <int>, UrineFlow1 <dbl>, UrineVol2 <int>, …
    ## # ℹ Use `print(n = ...)` to see more rows, and `colnames()` to see all variable names

OK but what if we want to filter on two variables, males who are also
married?

``` r
NHANES %>%
  filter(Gender == "male" & MaritalStatus == "Married")
```

    ## # A tibble: 2,029 × 76
    ##       ID SurveyYr Gender   Age AgeDecade AgeMonths Race1 Race3 Education Marit…¹
    ##    <int> <fct>    <fct>  <int> <fct>         <int> <fct> <fct> <fct>     <fct>  
    ##  1 51624 2009_10  male      34 " 30-39"        409 White <NA>  High Sch… Married
    ##  2 51624 2009_10  male      34 " 30-39"        409 White <NA>  High Sch… Married
    ##  3 51624 2009_10  male      34 " 30-39"        409 White <NA>  High Sch… Married
    ##  4 51654 2009_10  male      66 " 60-69"        795 White <NA>  Some Col… Married
    ##  5 51657 2009_10  male      54 " 50-59"        654 White <NA>  9 - 11th… Married
    ##  6 51677 2009_10  male      33 " 30-39"        404 White <NA>  High Sch… Married
    ##  7 51678 2009_10  male      60 " 60-69"        721 White <NA>  High Sch… Married
    ##  8 51694 2009_10  male      38 " 30-39"        458 White <NA>  Some Col… Married
    ##  9 51702 2009_10  male      44 " 40-49"        539 White <NA>  9 - 11th… Married
    ## 10 51702 2009_10  male      44 " 40-49"        539 White <NA>  9 - 11th… Married
    ## # … with 2,019 more rows, 66 more variables: HHIncome <fct>, HHIncomeMid <int>,
    ## #   Poverty <dbl>, HomeRooms <int>, HomeOwn <fct>, Work <fct>, Weight <dbl>,
    ## #   Length <dbl>, HeadCirc <dbl>, Height <dbl>, BMI <dbl>,
    ## #   BMICatUnder20yrs <fct>, BMI_WHO <fct>, Pulse <int>, BPSysAve <int>,
    ## #   BPDiaAve <int>, BPSys1 <int>, BPDia1 <int>, BPSys2 <int>, BPDia2 <int>,
    ## #   BPSys3 <int>, BPDia3 <int>, Testosterone <dbl>, DirectChol <dbl>,
    ## #   TotChol <dbl>, UrineVol1 <int>, UrineFlow1 <dbl>, UrineVol2 <int>, …
    ## # ℹ Use `print(n = ...)` to see more rows, and `colnames()` to see all variable names

OK but what if we want to filter on two variables, college graduates or
homeowners?

``` r
NHANES %>%
  filter(Education == "College Grad" | HomeOwn == "Own")
```

    ## # A tibble: 6,918 × 76
    ##       ID SurveyYr Gender   Age AgeDecade AgeMonths Race1 Race3 Education Marit…¹
    ##    <int> <fct>    <fct>  <int> <fct>         <int> <fct> <fct> <fct>     <fct>  
    ##  1 51624 2009_10  male      34 " 30-39"        409 White <NA>  High Sch… Married
    ##  2 51624 2009_10  male      34 " 30-39"        409 White <NA>  High Sch… Married
    ##  3 51624 2009_10  male      34 " 30-39"        409 White <NA>  High Sch… Married
    ##  4 51625 2009_10  male       4 " 0-9"           49 Other <NA>  <NA>      <NA>   
    ##  5 51646 2009_10  male       8 " 0-9"          101 White <NA>  <NA>      <NA>   
    ##  6 51647 2009_10  female    45 " 40-49"        541 White <NA>  College … Married
    ##  7 51647 2009_10  female    45 " 40-49"        541 White <NA>  College … Married
    ##  8 51647 2009_10  female    45 " 40-49"        541 White <NA>  College … Married
    ##  9 51654 2009_10  male      66 " 60-69"        795 White <NA>  Some Col… Married
    ## 10 51656 2009_10  male      58 " 50-59"        707 White <NA>  College … Divorc…
    ## # … with 6,908 more rows, 66 more variables: HHIncome <fct>, HHIncomeMid <int>,
    ## #   Poverty <dbl>, HomeRooms <int>, HomeOwn <fct>, Work <fct>, Weight <dbl>,
    ## #   Length <dbl>, HeadCirc <dbl>, Height <dbl>, BMI <dbl>,
    ## #   BMICatUnder20yrs <fct>, BMI_WHO <fct>, Pulse <int>, BPSysAve <int>,
    ## #   BPDiaAve <int>, BPSys1 <int>, BPDia1 <int>, BPSys2 <int>, BPDia2 <int>,
    ## #   BPSys3 <int>, BPDia3 <int>, Testosterone <dbl>, DirectChol <dbl>,
    ## #   TotChol <dbl>, UrineVol1 <int>, UrineFlow1 <dbl>, UrineVol2 <int>, …
    ## # ℹ Use `print(n = ...)` to see more rows, and `colnames()` to see all variable names
…
    NHANES %>%
      filter(Education == NA)

Nope! Since NA is a special value that indicates missing data, it cannot
be equal to anything, or not equal to anything. This means we can only
include or exclude NA using functions designed to do that. For example,
is.na() or na.rm=TRUE. The example below would work to find all rows
where Education was either “College Grad” OR was missing.

``` r
NHANES %>%
  filter(Education == "College Grad" | is.na(Education))
```

    ## # A tibble: 4,877 × 76
    ##       ID SurveyYr Gender   Age AgeDecade AgeMonths Race1 Race3 Education Marit…¹
    ##    <int> <fct>    <fct>  <int> <fct>         <int> <fct> <fct> <fct>     <fct>  
    ##  1 51625 2009_10  male       4 " 0-9"           49 Other <NA>  <NA>      <NA>   
    ##  2 51638 2009_10  male       9 " 0-9"          115 White <NA>  <NA>      <NA>   
    ##  3 51646 2009_10  male       8 " 0-9"          101 White <NA>  <NA>      <NA>   
    ##  4 51647 2009_10  female    45 " 40-49"        541 White <NA>  College … Married
    ##  5 51647 2009_10  female    45 " 40-49"        541 White <NA>  College … Married
    ##  6 51647 2009_10  female    45 " 40-49"        541 White <NA>  College … Married
    ##  7 51656 2009_10  male      58 " 50-59"        707 White <NA>  College … Divorc…
    ##  8 51659 2009_10  female    10 " 10-19"        123 White <NA>  <NA>      <NA>   
    ##  9 51671 2009_10  female     9 " 0-9"          112 Black <NA>  <NA>      <NA>   
    ## 10 51679 2009_10  male      16 " 10-19"        194 Other <NA>  <NA>      <NA>   
    ## # … with 4,867 more rows, 66 more variables: HHIncome <fct>, HHIncomeMid <int>,
    ## #   Poverty <dbl>, HomeRooms <int>, HomeOwn <fct>, Work <fct>, Weight <dbl>,
    ## #   Length <dbl>, HeadCirc <dbl>, Height <dbl>, BMI <dbl>,
    ## #   BMICatUnder20yrs <fct>, BMI_WHO <fct>, Pulse <int>, BPSysAve <int>,
    ## #   BPDiaAve <int>, BPSys1 <int>, BPDia1 <int>, BPSys2 <int>, BPDia2 <int>,
    ## #   BPSys3 <int>, BPDia3 <int>, Testosterone <dbl>, DirectChol <dbl>,
    ## #   TotChol <dbl>, UrineVol1 <int>, UrineFlow1 <dbl>, UrineVol2 <int>, …
    ## # ℹ Use `print(n = ...)` to see more rows, and `colnames()` to see all variable names
### arrange()

We haven’t seen this yet, but it works similarly to `filter()`, except
instead of selecting rows, it changes their order - Kind of like using
“sort” in Excel, except you know that you won’t accidentally sort just
the one row and scramble all your data.

Let’s sort the NHANES dataset by chronological age:

``` r
NHANES %>%
  arrange(Age)
```

    ## # A tibble: 10,000 × 76
    ##       ID SurveyYr Gender   Age AgeDecade AgeMonths Race1   Race3 Educa…¹ Marit…²
    ##    <int> <fct>    <fct>  <int> <fct>         <int> <fct>   <fct> <fct>   <fct>  
    ##  1 51962 2009_10  female     0 " 0-9"            2 Hispan… <NA>  <NA>    <NA>   
    ##  2 52066 2009_10  female     0 " 0-9"            8 Black   <NA>  <NA>    <NA>   
    ##  3 52300 2009_10  male       0 " 0-9"            2 Black   <NA>  <NA>    <NA>   
    ##  4 52373 2009_10  male       0 " 0-9"            7 Black   <NA>  <NA>    <NA>   
    ##  5 52435 2009_10  female     0 " 0-9"            6 White   <NA>  <NA>    <NA>   
    ##  6 52435 2009_10  female     0 " 0-9"            6 White   <NA>  <NA>    <NA>   
    ##  7 52442 2009_10  female     0 " 0-9"            3 White   <NA>  <NA>    <NA>   
    ##  8 52442 2009_10  female     0 " 0-9"            3 White   <NA>  <NA>    <NA>   
    ##  9 52459 2009_10  female     0 " 0-9"            9 White   <NA>  <NA>    <NA>   
    ## 10 52461 2009_10  female     0 " 0-9"            1 Mexican <NA>  <NA>    <NA>   
    ## # … with 9,990 more rows, 66 more variables: HHIncome <fct>, HHIncomeMid <int>,
    ## #   Poverty <dbl>, HomeRooms <int>, HomeOwn <fct>, Work <fct>, Weight <dbl>,
    ## #   Length <dbl>, HeadCirc <dbl>, Height <dbl>, BMI <dbl>,
    ## #   BMICatUnder20yrs <fct>, BMI_WHO <fct>, Pulse <int>, BPSysAve <int>,
    ## #   BPDiaAve <int>, BPSys1 <int>, BPDia1 <int>, BPSys2 <int>, BPDia2 <int>,
    ## #   BPSys3 <int>, BPDia3 <int>, Testosterone <dbl>, DirectChol <dbl>,
    ## #   TotChol <dbl>, UrineVol1 <int>, UrineFlow1 <dbl>, UrineVol2 <int>, …
    ## # ℹ Use `print(n = ...)` to see more rows, and `colnames()` to see all variable names

OK, cool, but what if we want to see the oldest people first? We can
specify the order, and change the default:

``` r
NHANES %>%
  arrange(desc(Age))
```

    ## # A tibble: 10,000 × 76
    ##       ID SurveyYr Gender   Age AgeDecade AgeMonths Race1 Race3 Education Marit…¹
    ##    <int> <fct>    <fct>  <int> <fct>         <int> <fct> <fct> <fct>     <fct>  
    ##  1 51790 2009_10  female    80 <NA>             NA White <NA>  9 - 11th… Married
    ##  2 51790 2009_10  female    80 <NA>             NA White <NA>  9 - 11th… Married
    ##  3 51804 2009_10  male      80 <NA>             NA White <NA>  High Sch… Married
    ##  4 51819 2009_10  male      80 <NA>             NA White <NA>  9 - 11th… Married
    ##  5 51861 2009_10  male      80 <NA>             NA White <NA>  High Sch… Married
    ##  6 52067 2009_10  female    80 <NA>             NA White <NA>  9 - 11th… Married
    ##  7 52255 2009_10  female    80 <NA>             NA White <NA>  8th Grade Widowed
    ##  8 52255 2009_10  female    80 <NA>             NA White <NA>  8th Grade Widowed
    ##  9 52289 2009_10  male      80 <NA>             NA White <NA>  High Sch… Married
    ## 10 52343 2009_10  female    80 <NA>             NA White <NA>  High Sch… Widowed
    ## # … with 9,990 more rows, 66 more variables: HHIncome <fct>, HHIncomeMid <int>,
    ## #   Poverty <dbl>, HomeRooms <int>, HomeOwn <fct>, Work <fct>, Weight <dbl>,
    ## #   Length <dbl>, HeadCirc <dbl>, Height <dbl>, BMI <dbl>,
    ## #   BMICatUnder20yrs <fct>, BMI_WHO <fct>, Pulse <int>, BPSysAve <int>,
    ## #   BPDiaAve <int>, BPSys1 <int>, BPDia1 <int>, BPSys2 <int>, BPDia2 <int>,
    ## #   BPSys3 <int>, BPDia3 <int>, Testosterone <dbl>, DirectChol <dbl>,
    ## #   TotChol <dbl>, UrineVol1 <int>, UrineFlow1 <dbl>, UrineVol2 <int>, …
    ## # ℹ Use `print(n = ...)` to see more rows, and `colnames()` to see all variable names

But what if we really want to use the age category? Do you think we can
sort on a factor or character? Let’s try! We can try anything in R…

``` r
NHANES %>%
  arrange(AgeDecade)
```

    ## # A tibble: 10,000 × 76
    ##       ID SurveyYr Gender   Age AgeDecade AgeMonths Race1   Race3 Educa…¹ Marit…²
    ##    <int> <fct>    <fct>  <int> <fct>         <int> <fct>   <fct> <fct>   <fct>  
    ##  1 51625 2009_10  male       4 " 0-9"           49 Other   <NA>  <NA>    <NA>   
    ##  2 51638 2009_10  male       9 " 0-9"          115 White   <NA>  <NA>    <NA>   
    ##  3 51646 2009_10  male       8 " 0-9"          101 White   <NA>  <NA>    <NA>   
    ##  4 51671 2009_10  female     9 " 0-9"          112 Black   <NA>  <NA>    <NA>   
    ##  5 51695 2009_10  male       8 " 0-9"          104 White   <NA>  <NA>    <NA>   
    ##  6 51743 2009_10  male       8 " 0-9"           98 Hispan… <NA>  <NA>    <NA>   
    ##  7 51743 2009_10  male       8 " 0-9"           98 Hispan… <NA>  <NA>    <NA>   
    ##  8 51753 2009_10  male       3 " 0-9"           43 White   <NA>  <NA>    <NA>   
    ##  9 51755 2009_10  male       1 " 0-9"           18 White   <NA>  <NA>    <NA>   
    ## 10 51767 2009_10  female     6 " 0-9"           76 White   <NA>  <NA>    <NA>   
    ## # … with 9,990 more rows, 66 more variables: HHIncome <fct>, HHIncomeMid <int>,
    ## #   Poverty <dbl>, HomeRooms <int>, HomeOwn <fct>, Work <fct>, Weight <dbl>,
    ## #   Length <dbl>, HeadCirc <dbl>, Height <dbl>, BMI <dbl>,
    ## #   BMICatUnder20yrs <fct>, BMI_WHO <fct>, Pulse <int>, BPSysAve <int>,
    ## #   BPDiaAve <int>, BPSys1 <int>, BPDia1 <int>, BPSys2 <int>, BPDia2 <int>,
    ## #   BPSys3 <int>, BPDia3 <int>, Testosterone <dbl>, DirectChol <dbl>,
    ## #   TotChol <dbl>, UrineVol1 <int>, UrineFlow1 <dbl>, UrineVol2 <int>, …
    ## # ℹ Use `print(n = ...)` to see more rows, and `colnames()` to see all variable names
…
``` r
ncol(NHANES)
```

    ## [1] 76

Let’s just get the ones we want.

``` r
NHANES %>%
  select(Gender, Age, Weight, Height, Diabetes)
```

    ## # A tibble: 10,000 × 5
    ##    Gender   Age Weight Height Diabetes
    ##    <fct>  <int>  <dbl>  <dbl> <fct>   
    ##  1 male      34   87.4   165. No      
    ##  2 male      34   87.4   165. No      
    ##  3 male      34   87.4   165. No      
    ##  4 male       4   17     105. No      
    ##  5 female    49   86.7   168. No      
    ##  6 male       9   29.8   133. No      
    ##  7 male       8   35.2   131. No      
    ##  8 female    45   75.7   167. No      
    ##  9 female    45   75.7   167. No      
    ## 10 female    45   75.7   167. No      
    ## # … with 9,990 more rows
    ## # ℹ Use `print(n = ...)` to see more rows

What if we wanted most of the columns, but just not the ones related to
sexual health? Wouldn’t it be terrible to have to type ALL those names?
Even just typing all the sexual health columns (7) would be a pain!
Luckily, we don’t have to!

``` r
NHANES %>%
  select(-(SexEver:PregnantNow))
```

    ## # A tibble: 10,000 × 69
    ##       ID SurveyYr Gender   Age AgeDecade AgeMonths Race1 Race3 Education Marit…¹
    ##    <int> <fct>    <fct>  <int> <fct>         <int> <fct> <fct> <fct>     <fct>  
    ##  1 51624 2009_10  male      34 " 30-39"        409 White <NA>  High Sch… Married
    ##  2 51624 2009_10  male      34 " 30-39"        409 White <NA>  High Sch… Married
    ##  3 51624 2009_10  male      34 " 30-39"        409 White <NA>  High Sch… Married
    ##  4 51625 2009_10  male       4 " 0-9"           49 Other <NA>  <NA>      <NA>   
    ##  5 51630 2009_10  female    49 " 40-49"        596 White <NA>  Some Col… LivePa…
    ##  6 51638 2009_10  male       9 " 0-9"          115 White <NA>  <NA>      <NA>   
    ##  7 51646 2009_10  male       8 " 0-9"          101 White <NA>  <NA>      <NA>   
    ##  8 51647 2009_10  female    45 " 40-49"        541 White <NA>  College … Married
    ##  9 51647 2009_10  female    45 " 40-49"        541 White <NA>  College … Married
    ## 10 51647 2009_10  female    45 " 40-49"        541 White <NA>  College … Married
    ## # … with 9,990 more rows, 59 more variables: HHIncome <fct>, HHIncomeMid <int>,
    ## #   Poverty <dbl>, HomeRooms <int>, HomeOwn <fct>, Work <fct>, Weight <dbl>,
    ## #   Length <dbl>, HeadCirc <dbl>, Height <dbl>, BMI <dbl>,
    ## #   BMICatUnder20yrs <fct>, BMI_WHO <fct>, Pulse <int>, BPSysAve <int>,
    ## #   BPDiaAve <int>, BPSys1 <int>, BPDia1 <int>, BPSys2 <int>, BPDia2 <int>,
    ## #   BPSys3 <int>, BPDia3 <int>, Testosterone <dbl>, DirectChol <dbl>,
    ## #   TotChol <dbl>, UrineVol1 <int>, UrineFlow1 <dbl>, UrineVol2 <int>, …
    ## # ℹ Use `print(n = ...)` to see more rows, and `colnames()` to see all variable names
…
-   `starts_with("")`
-   `end_with("")`
-   `contains("ijk")`

So let’s say we know that we have a bunch of columns for sexual health,
but we don’t want to write them all, or look them up, even though we
need them for analysis. We can be lazy and just say we want all the
columns that contain “Sex” in the name!

``` r
NHANES %>%
  select(contains("Sex"))
```

    ## # A tibble: 10,000 × 6
    ##    SexEver SexAge SexNumPartnLife SexNumPartYear SameSex SexOrientation
    ##    <fct>    <int>           <int>          <int> <fct>   <fct>         
    ##  1 Yes         16               8              1 No      Heterosexual  
    ##  2 Yes         16               8              1 No      Heterosexual  
    ##  3 Yes         16               8              1 No      Heterosexual  
    ##  4 <NA>        NA              NA             NA <NA>    <NA>          
    ##  5 Yes         12              10              1 Yes     Heterosexual  
    ##  6 <NA>        NA              NA             NA <NA>    <NA>          
    ##  7 <NA>        NA              NA             NA <NA>    <NA>          
    ##  8 Yes         13              20              0 Yes     Bisexual      
    ##  9 Yes         13              20              0 Yes     Bisexual      
    ## 10 Yes         13              20              0 Yes     Bisexual      
    ## # … with 9,990 more rows
    ## # ℹ Use `print(n = ...)` to see more rows
…
