…
``` r
mtcars_split %>%
  expand_grid(., 
              forms = form_list) %>%
  mutate(
    model_num = rep(1:7, len = n()),
    models = map2(train, forms, ~ lm(.y, data = .x))
  ) -> mtcars_split

## Check it:
mtcars_split
```

    ## # A tibble: 350 × 6
    ##    train                test                 .id   forms        model_num models
    ##    <list>               <list>               <chr> <named list>     <int> <list>
    ##  1 <resample [22 x 11]> <resample [10 x 11]> 01    <formula>            1 <lm>  
    ##  2 <resample [22 x 11]> <resample [10 x 11]> 01    <formula>            2 <lm>  
    ##  3 <resample [22 x 11]> <resample [10 x 11]> 01    <formula>            3 <lm>  
    ##  4 <resample [22 x 11]> <resample [10 x 11]> 01    <formula>            4 <lm>  
    ##  5 <resample [22 x 11]> <resample [10 x 11]> 01    <formula>            5 <lm>  
    ##  6 <resample [22 x 11]> <resample [10 x 11]> 01    <formula>            6 <lm>  
    ##  7 <resample [22 x 11]> <resample [10 x 11]> 01    <formula>            7 <lm>  
    ##  8 <resample [22 x 11]> <resample [10 x 11]> 02    <formula>            1 <lm>  
    ##  9 <resample [22 x 11]> <resample [10 x 11]> 02    <formula>            2 <lm>  
    ## 10 <resample [22 x 11]> <resample [10 x 11]> 02    <formula>            3 <lm>  
    ## # … with 340 more rows
    ## # ℹ Use `print(n = ...)` to see more rows
…
