…
Why do you think ignore.case=TRUE might be an important argument here?

Say the name contains 3 or more vowels in a row.

``` r
NameList %>%
    filter(grepl("[aeiou]{3,}", name, ignore.case = TRUE))
```

    ## # A tibble: 2,044 × 3
    ## # Groups:   name [1,966]
    ##    name     sex    total
    ##    <chr>    <chr>  <int>
    ##  1 Louis    M     394969
    ##  2 Louise   F     332672
    ##  3 Isaiah   M     207627
    ##  4 Beau     M      34932
    ##  5 Louie    M      27966
    ##  6 Louisa   F      18828
    ##  7 Precious F      18757
    ##  8 Queen    F      14579
    ##  9 Leeann   F      14011
    ## 10 Ezequiel M      13477
    ## # … with 2,034 more rows
    ## # ℹ Use `print(n = ...)` to see more rows

Some names have multiple different spellings: Sara vs Sarah

``` r
NameList %>%
    filter(grepl("^[s][a][r][a]", name, ignore.case = TRUE))
```

    ## # A tibble: 88 × 3
    ## # Groups:   name [82]
    ##    name     sex     total
    ##    <chr>    <chr>   <int>
    ##  1 Sarah    F     1073895
    ##  2 Sara     F      422998
    ##  3 Sarai    F       17166
    ##  4 Sarahi   F        6159
    ##  5 Sarah    M        3320
    ##  6 Saray    F        2007
    ##  7 Sara     M        1237
    ##  8 Saralyn  F        1235
    ##  9 Sarabeth F        1220
    ## 10 Saraya   F        1189
    ## # … with 78 more rows
    ## # ℹ Use `print(n = ...)` to see more rows

Or

``` r
NameList %>%
    filter(grepl('^sara', name, ignore.case = TRUE))
```

    ## # A tibble: 88 × 3
    ## # Groups:   name [82]
    ##    name     sex     total
    ##    <chr>    <chr>   <int>
    ##  1 Sarah    F     1073895
    ##  2 Sara     F      422998
    ##  3 Sarai    F       17166
    ##  4 Sarahi   F        6159
    ##  5 Sarah    M        3320
    ##  6 Saray    F        2007
    ##  7 Sara     M        1237
    ##  8 Saralyn  F        1235
    ##  9 Sarabeth F        1220
    ## 10 Saraya   F        1189
    ## # … with 78 more rows
    ## # ℹ Use `print(n = ...)` to see more rows
…
**Challenge: you try…!**

-   The name contains 3 or more consonants in a row.
-   The name contains “mn”.
-   The first, third, and fifth letters are consonants.

``` r
NameList %>%
    filter(grepl("[^aeiou]{3,}", name, ignore.case = TRUE))
```

    ## # A tibble: 17,881 × 3
    ## # Groups:   name [16,219]
    ##    name        sex     total
    ##    <chr>       <chr>   <int>
    ##  1 Christopher M     2022164
    ##  2 Matthew     M     1590440
    ##  3 Anthony     M     1432718
    ##  4 Andrew      M     1283910
    ##  5 Dorothy     F     1107096
    ##  6 Timothy     M     1068556
    ##  7 Nancy       F     1002010
    ##  8 Betty       F      999474
    ##  9 Jeffrey     M      973741
    ## 10 Sandra      F      873512
    ## # … with 17,871 more rows
    ## # ℹ Use `print(n = ...)` to see more rows

``` r
NameList %>%
    filter(grepl("mn", name, ignore.case = TRUE))
```

    ## # A tibble: 53 × 3
    ## # Groups:   name [45]
    ##    name    sex    total
    ##    <chr>   <chr>  <int>
    ##  1 Autumn  F     120271
    ##  2 Sumner  M       2338
    ##  3 Amna    F       1328
    ##  4 Domnick M        422
    ##  5 Tatumn  F        306
    ##  6 Yumna   F        291
    ##  7 Autumn  M        277
    ##  8 Romney  M        257
    ##  9 Autymn  F        245
    ## 10 Omni    F        218
    ## # … with 43 more rows
    ## # ℹ Use `print(n = ...)` to see more rows

``` r
NameList %>%
    filter(grepl("^[aeiou].[^aeiou].[^aeiou]", name, ignore.case = TRUE))
```

    ## # A tibble: 5,893 × 3
    ## # Groups:   name [5,404]
    ##    name    sex     total
    ##    <chr>   <chr>   <int>
    ##  1 Edward  M     1288725
    ##  2 Angela  F      663696
    ##  3 Aaron   M      575297
    ##  4 Albert  M      487565
    ##  5 Ethan   M      413193
    ##  6 Eugene  M      378539
    ##  7 Amber   F      369899
    ##  8 Alyssa  F      304582
    ##  9 Ernest  M      300826
    ## 10 Allison F      295039
    ## # … with 5,883 more rows
    ## # ℹ Use `print(n = ...)` to see more rows
…
